C:\Users\portatil\angeles\sjava_angeles\miaplicacion\src\main\java\com\sjava\Persona.java
C:\Users\portatil\angeles\sjava_angeles\miaplicacion\src\main\java\com\sjava\PersonaController.java
C:\Users\portatil\angeles\sjava_angeles\miaplicacion\src\main\java\com\sjava\App.java
