C:\Users\portatil\angeles\sjava_angeles\proyectos_web\academiapp\src\main\java\com\sjava\web\AlumnoController.java
C:\Users\portatil\angeles\sjava_angeles\proyectos_web\academiapp\src\main\java\com\sjava\web\Curso.java
C:\Users\portatil\angeles\sjava_angeles\proyectos_web\academiapp\src\main\java\com\sjava\web\CursoController.java
C:\Users\portatil\angeles\sjava_angeles\proyectos_web\academiapp\src\main\java\com\sjava\web\Profesor.java
C:\Users\portatil\angeles\sjava_angeles\proyectos_web\academiapp\src\main\java\com\sjava\web\ProfesorController.java
C:\Users\portatil\angeles\sjava_angeles\proyectos_web\academiapp\src\main\java\com\sjava\web\Alumno.java
